%YAML 1.1
%TAG !u! tag:unity3d.com,2011:
--- !u!74 &7400000
AnimationClip:
  m_ObjectHideFlags: 0
  m_CorrespondingSourceObject: {fileID: 0}
  m_PrefabInstance: {fileID: 0}
  m_PrefabAsset: {fileID: 0}
  m_Name: Enemy_idle
  serializedVersion: 6
  m_Legacy: 0
  m_Compressed: 0
  m_UseHighQualityCurve: 1
  m_RotationCurves: []
  m_CompressedRotationCurves: []
  m_EulerCurves: []
  m_PositionCurves: []
  m_ScaleCurves: []
  m_FloatCurves: []
  m_PPtrCurves:
  - curve:
    - time: 0
      value: {fileID: 21300000, guid: 15913b831f83a5a49b4d79837da99fb7, type: 3}
    - time: 0.083333336
      value: {fileID: 21300000, guid: 86b67f60267e78d4b9c486a780fd001b, type: 3}
    - time: 0.16666667
      value: {fileID: 21300000, guid: b8c75ae690541af4c8ec5ff55ec758d1, type: 3}
    - time: 0.25
      value: {fileID: 21300000, guid: 8a513910f238dcc4bbfc180fb79b581b, type: 3}
    - time: 0.33333334
      value: {fileID: 21300000, guid: 5ac403b6301274f4aa64a3afae1fba53, type: 3}
    - time: 0.41666666
      value: {fileID: 21300000, guid: b1ba80709f154b34d8667546de7eb83e, type: 3}
    - time: 0.5
      value: {fileID: 21300000, guid: 69c39079eace0ba4b9fb51bff6d93619, type: 3}
    - time: 0.5833333
      value: {fileID: 21300000, guid: 8bebc90c48bccba439ed6f083bb4ca7f, type: 3}
    - time: 0.6666667
      value: {fileID: 21300000, guid: 23d7462e2a5f18f41bb1fb93210ce58f, type: 3}
    attribute: m_Sprite
    path: 
    classID: 212
    script: {fileID: 0}
  m_SampleRate: 12
  m_WrapMode: 0
  m_Bounds:
    m_Center: {x: 0, y: 0, z: 0}
    m_Extent: {x: 0, y: 0, z: 0}
  m_ClipBindingConstant:
    genericBindings:
    - serializedVersion: 2
      path: 0
      attribute: 0
      script: {fileID: 0}
      typeID: 212
      customType: 23
      isPPtrCurve: 1
    pptrCurveMapping:
    - {fileID: 21300000, guid: 15913b831f83a5a49b4d79837da99fb7, type: 3}
    - {fileID: 21300000, guid: 86b67f60267e78d4b9c486a780fd001b, type: 3}
    - {fileID: 21300000, guid: b8c75ae690541af4c8ec5ff55ec758d1, type: 3}
    - {fileID: 21300000, guid: 8a513910f238dcc4bbfc180fb79b581b, type: 3}
    - {fileID: 21300000, guid: 5ac403b6301274f4aa64a3afae1fba53, type: 3}
    - {fileID: 21300000, guid: b1ba80709f154b34d8667546de7eb83e, type: 3}
    - {fileID: 21300000, guid: 69c39079eace0ba4b9fb51bff6d93619, type: 3}
    - {fileID: 21300000, guid: 8bebc90c48bccba439ed6f083bb4ca7f, type: 3}
    - {fileID: 21300000, guid: 23d7462e2a5f18f41bb1fb93210ce58f, type: 3}
  m_AnimationClipSettings:
    serializedVersion: 2
    m_AdditiveReferencePoseClip: {fileID: 0}
    m_AdditiveReferencePoseTime: 0
    m_StartTime: 0
    m_StopTime: 0.75
    m_OrientationOffsetY: 0
    m_Level: 0
    m_CycleOffset: 0
    m_HasAdditiveReferencePose: 0
    m_LoopTime: 1
    m_LoopBlend: 0
    m_LoopBlendOrientation: 0
    m_LoopBlendPositionY: 0
    m_LoopBlendPositionXZ: 0
    m_KeepOriginalOrientation: 0
    m_KeepOriginalPositionY: 1
    m_KeepOriginalPositionXZ: 0
    m_HeightFromFeet: 0
    m_Mirror: 0
  m_EditorCurves: []
  m_EulerEditorCurves: []
  m_HasGenericRootTransform: 0
  m_HasMotionFloatCurves: 0
  m_Events: []
